<?xml version="1.0" encoding="UTF-8"?>
<svg width="5" height="5" version="1.1" xmlns="http://www.w3.org/2000/svg">
    <path d="M0.5 0.5h1v3h3v1h-4Z" transform="rotate(45,2.5,2.5),scale(0.8),translate(0.625, 0.625), translate(0.3,-0.3)" fill="#ffffff" fill-opacity="0.8"/>
</svg>